{
  "parent": "minecraft:item/generated",
  "textures": {
    "layer0": "minecraft:item/arrow"
  },
  "overrides": [
    {
      "predicate": {
        "custom_model_data": 1048576
      },
      "model": "item/immobilization_arrow"
    },
    {
      "predicate": {
        "custom_model_data": 1048577
      },
      "model": "item/warp_arrow"
    },
    {
      "predicate": {
        "custom_model_data": 1048578
      },
      "model": "item/explosive_arrow"
    }
  ]
}